{
  "version": {
    "major" : 2,
    "medium": 1,
    "minor" : 4
  },

  "release": {
    "date": "2022-01-07"
  },

  "breaking_changes" : [
  ],

  "new_features" : [
  ],

  "bug_fixes" : [
    {
      "id" : "bg01",
      "brief": "SentinelManager now raises notification for failed pluggins/threads correctly.",
      "detail": "Fixed a bug where the sentinel manager would not call the notifiy virtual method when pluggins failed."
    }
  ],

  "deprecated" : [
  ]
}
