{
  "version": {
    "major" : 2,
    "medium": 1,
    "minor" : 5
  },

  "release": {
    "date": "2022-02-28"
  },

  "breaking_changes" : [
  ],

  "new_features" : [
  ],

  "bug_fixes" : [
    {
      "id" : "bg01",
      "brief": "Fixed a couplet regression bug. OTP errors will now surface correctly.",
      "detail": "Fixed a regression bug where the couplet names were changed and we did not pick it up."
    }
  ],

  "deprecated" : [
  ]
}
