{
  "version": {
    "major" : 2,
    "medium": 1,
    "minor" : 0
  },

  "release": {
    "date": "2021-02-13"
  },

  "breaking_changes" : [
    {
      "id": "bc01",
      "brief": "Moved the dao import.",
      "detail": "Moved the dao import method from util.py to the __init__.py."
    }
  ],

  "new_features" : [
    {
      "id" : "nf01",
      "brief": "Implemented mettle 2.0.1 changes",
      "detail": "Pulled in the mettle via PYPI, updated project to cater for new changes in mettle."
    },
    {
      "id" : "nf02",
      "brief": "Embedded SQL into the python package.",
      "detail": "You can now read the database creation from the package, also added an entry point for this."
    }
  ],

  "deprecated" : [
  ]
}
