{
  "version": {
    "major" : 2,
    "medium": 1,
    "minor" : 2
  },

  "release": {
    "date": "2021-08-24"
  },

  "breaking_changes" : [
  ],

  "bug_fixes" : [
    {
      "id" : "bg01",
      "brief": "Scheduled jobs missing parent identifier.",
      "detail": "Fixed a bug where schedule batch jobs would not set or wait for their parent job."
    },
  ],

  "deprecated" : [
  ]
}
